{
    "outbounds": [
        {
          "disable_mtu_discovery": false,
          "down_mbps": 100,
          "obfs": "6R5mSzrztlz0rhe",
          "server": "sg-hysteria.racevpn.com",
          "server_port": 8443,
          "tls": {
            "enabled": true,
            "insecure": true,
            "server_name": "sg-hysteria.racevpn.com"
          },
          "up_mbps": 10,
          "type": "hysteria",
          "domain_strategy": "",
          "tag": "physy"
        },
        {
  "type": "direct",
  "tag": "direct-out"

  
},

          {
  "type": "ssh",
  "tag": "ssh-out",
  "server": "139.162.59.102",
  "server_port": 442,
  "user": "racevpn.com-cxvfd",
  "password": "fvcfg"
},
{
      "password": "ftyub",
      "server": "ssh-sg-4.vpnv.cc",
      "server_port": 143,
      "user": "freevpn.us-Ghjjk",
      "type": "ssh",
      "tag": "proxy"
    }
      ]
    }
